riscv/src/wave.vcd
$date
	Thu Dec 17 22:00:43 2020
$end
$version
	Icarus Verilog
$end
$timescale
	1ps
$end
$scope module testbench $end
$var reg 1 ! clk $end
$var reg 1 " rst $end
$scope module top $end
$var wire 1 ! EXCLK $end
$var wire 1 # Rx $end
$var wire 1 " btnC $end
$var wire 1 $ clk $end
$var wire 32 % cpu_dbgreg_dout [31:0] $end
$var wire 8 & hci_io_din [7:0] $end
$var wire 1 ' hci_io_wr $end
$var wire 8 ( hci_ram_din [7:0] $end
$var wire 1 ) led $end
$var wire 1 * ram_en $end
$var wire 8 + ram_dout [7:0] $end
$var wire 17 , ram_a [16:0] $end
$var wire 1 - hci_ram_wr $end
$var wire 8 . hci_ram_dout [7:0] $end
$var wire 17 / hci_ram_a [16:0] $end
$var wire 3 0 hci_io_sel [2:0] $end
$var wire 1 1 hci_io_full $end
$var wire 1 2 hci_io_en $end
$var wire 8 3 hci_io_dout [7:0] $end
$var wire 1 4 hci_active_out $end
$var wire 1 5 hci_active $end
$var wire 1 6 cpumc_wr $end
$var wire 8 7 cpumc_din [7:0] $end
$var wire 32 8 cpumc_a [31:0] $end
$var wire 1 9 cpu_rdy $end
$var wire 1 : cpu_ram_wr $end
$var wire 8 ; cpu_ram_dout [7:0] $end
$var wire 8 < cpu_ram_din [7:0] $end
$var wire 32 = cpu_ram_a [31:0] $end
$var wire 1 > Tx $end
$var reg 1 ? q_hci_io_en $end
$var reg 1 @ rst $end
$var reg 1 A rst_delay $end
$scope module cpu0 $end
$var wire 1 $ clk_in $end
$var wire 32 B dbgreg_dout [31:0] $end
$var wire 8 C mem_din [7:0] $end
$var wire 1 9 rdy_in $end
$var wire 1 @ rst_in $end
$var wire 1 D rst_in_ $end
$var wire 1 E wb_enable $end
$var wire 32 F wb_data [31:0] $end
$var wire 5 G wb_addr [4:0] $end
$var wire 5 H stall_signal [4:0] $end
$var wire 1 : mem_wr $end
$var wire 1 I mem_stall_o $end
$var wire 1 J mem_rd_enable_o $end
$var wire 1 K mem_rd_enable_i $end
$var wire 32 L mem_rd_data_o [31:0] $end
$var wire 32 M mem_rd_data_i [31:0] $end
$var wire 5 N mem_rd_addr_o [4:0] $end
$var wire 5 O mem_rd_addr_i [4:0] $end
$var wire 1 P mem_ram_w_req_o $end
$var wire 32 Q mem_ram_w_data_o [31:0] $end
$var wire 1 R mem_ram_r_req_o $end
$var wire 32 S mem_ram_r_data_i [31:0] $end
$var wire 1 T mem_ram_done_i $end
$var wire 32 U mem_ram_addr_o [31:0] $end
$var wire 32 V mem_mem_addr_i [31:0] $end
$var wire 8 W mem_dout [7:0] $end
$var wire 5 X mem_aluop_i [4:0] $end
$var wire 32 Y mem_a [31:0] $end
$var wire 1 Z jump_flag $end
$var wire 1 1 io_buffer_full $end
$var wire 1 [ inst_req $end
$var wire 32 \ inst_pc [31:0] $end
$var wire 1 ] inst_done $end
$var wire 32 ^ inst_addr_o [31:0] $end
$var wire 1 _ if_stall_o $end
$var wire 32 ` if_pc_o [31:0] $end
$var wire 32 a if_pc_i [31:0] $end
$var wire 32 b if_inst_o [31:0] $end
$var wire 32 c if_inst_i [31:0] $end
$var wire 1 d id_stall_o $end
$var wire 5 e id_rd_o [4:0] $end
$var wire 1 f id_rd_enable_o $end
$var wire 32 g id_r2_o [31:0] $end
$var wire 1 h id_r2_enable_o $end
$var wire 32 i id_r2_data_i [31:0] $end
$var wire 5 j id_r2_addr_o [4:0] $end
$var wire 32 k id_r1_o [31:0] $end
$var wire 1 l id_r1_enable_o $end
$var wire 32 m id_r1_data_i [31:0] $end
$var wire 5 n id_r1_addr_o [4:0] $end
$var wire 32 o id_pc_o [31:0] $end
$var wire 32 p id_pc_i [31:0] $end
$var wire 32 q id_inst_i [31:0] $end
$var wire 32 r id_imm_o [31:0] $end
$var wire 3 s id_alusel_o [2:0] $end
$var wire 5 t id_aluop_o [4:0] $end
$var wire 5 u ex_rd_i [4:0] $end
$var wire 1 v ex_rd_enable_o $end
$var wire 1 w ex_rd_enable_i $end
$var wire 5 x ex_rd_addr_o [4:0] $end
$var wire 32 y ex_r2_i [31:0] $end
$var wire 32 z ex_r1_i [31:0] $end
$var wire 32 { ex_pc_i [31:0] $end
$var wire 32 | ex_output_o [31:0] $end
$var wire 32 } ex_mem_addr_o [31:0] $end
$var wire 1 ~ ex_ld_flag_o $end
$var wire 32 !" ex_imm_i [31:0] $end
$var wire 3 "" ex_alusel_i [2:0] $end
$var wire 5 #" ex_aluop_o [4:0] $end
$var wire 5 $" ex_aluop_i [4:0] $end
$var wire 4 %" buffer_pointer [3:0] $end
$var wire 32 &" branch_to [31:0] $end
$var wire 1 '" branch_taken $end
$var wire 32 (" branch_pc [31:0] $end
$scope module ex_mem_unit $end
$var wire 1 $ clk $end
$var wire 1 D rst $end
$var wire 5 )" stall_signal [4:0] $end
$var wire 1 v rd_enable_i $end
$var wire 32 *" rd_data_i [31:0] $end
$var wire 5 +" rd_addr_i [4:0] $end
$var wire 32 ," mem_addr_i [31:0] $end
$var wire 5 -" aluop_i [4:0] $end
$var reg 5 ." aluop_o [4:0] $end
$var reg 32 /" mem_addr_o [31:0] $end
$var reg 5 0" rd_addr_o [4:0] $end
$var reg 32 1" rd_data_o [31:0] $end
$var reg 1 K rd_enable_o $end
$upscope $end
$scope module ex_unit $end
$var wire 1 D rst $end
$var wire 1 w rd_enable $end
$var wire 5 2" rd [4:0] $end
$var wire 32 3" r2 [31:0] $end
$var wire 32 4" r1 [31:0] $end
$var wire 32 5" pc [31:0] $end
$var wire 32 6" jalr_to [31:0] $end
$var wire 32 7" imm [31:0] $end
$var wire 32 8" if_pc [31:0] $end
$var wire 32 9" id_pc [31:0] $end
$var wire 3 :" alusel [2:0] $end
$var wire 5 ;" aluop [4:0] $end
$var reg 5 <" aluop_o [4:0] $end
$var reg 32 =" arith_out [31:0] $end
$var reg 1 >" branch_flag $end
$var reg 32 ?" branch_pc [31:0] $end
$var reg 1 '" branch_taken $end
$var reg 32 @" branch_to [31:0] $end
$var reg 1 Z jump_flag $end
$var reg 1 ~ ld_flag $end
$var reg 32 A" logic_out [31:0] $end
$var reg 32 B" mem_addr_o [31:0] $end
$var reg 32 C" output_ [31:0] $end
$var reg 32 D" predicted_pc [31:0] $end
$var reg 5 E" rd_addr_o [4:0] $end
$var reg 1 v rd_enable_o $end
$var reg 32 F" shift_out [31:0] $end
$upscope $end
$scope module id_ex_unit $end
$var wire 1 $ clk $end
$var wire 1 Z jump_flag $end
$var wire 1 D rst $end
$var wire 5 G" stall_signal [4:0] $end
$var wire 5 H" rd_i [4:0] $end
$var wire 1 f rd_enable_i $end
$var wire 32 I" r2_i [31:0] $end
$var wire 32 J" r1_i [31:0] $end
$var wire 32 K" pc_i [31:0] $end
$var wire 32 L" imm_i [31:0] $end
$var wire 3 M" alusel_i [2:0] $end
$var wire 5 N" aluop_i [4:0] $end
$var reg 5 O" aluop_o [4:0] $end
$var reg 3 P" alusel_o [2:0] $end
$var reg 32 Q" imm_o [31:0] $end
$var reg 32 R" pc_o [31:0] $end
$var reg 32 S" r1_o [31:0] $end
$var reg 32 T" r2_o [31:0] $end
$var reg 1 w rd_enable_o $end
$var reg 5 U" rd_o [4:0] $end
$upscope $end
$scope module id_unit $end
$var wire 32 V" ex_forward [31:0] $end
$var wire 5 W" ex_wb_addr [4:0] $end
$var wire 1 v ex_wb_flag $end
$var wire 1 d id_stall $end
$var wire 1 ~ ld_flag $end
$var wire 1 D rst $end
$var wire 5 X" rd [4:0] $end
$var wire 32 Y" r2_data_i [31:0] $end
$var wire 5 Z" r2_addr [4:0] $end
$var wire 32 [" r1_data_i [31:0] $end
$var wire 5 \" r1_addr [4:0] $end
$var wire 32 ]" pc_i [31:0] $end
$var wire 7 ^" opcode [6:0] $end
$var wire 1 J mem_wb_flag $end
$var wire 5 _" mem_wb_addr [4:0] $end
$var wire 32 `" mem_forward [31:0] $end
$var wire 32 a" inst [31:0] $end
$var wire 7 b" func7 [6:0] $end
$var wire 3 c" func3 [2:0] $end
$var reg 5 d" aluop [4:0] $end
$var reg 3 e" alusel [2:0] $end
$var reg 32 f" imm [31:0] $end
$var reg 32 g" pc_o [31:0] $end
$var reg 32 h" r1 [31:0] $end
$var reg 1 l r1_read_enable $end
$var reg 1 i" r1_stall $end
$var reg 32 j" r2 [31:0] $end
$var reg 1 h r2_read_enable $end
$var reg 1 k" r2_stall $end
$var reg 1 f rd_enable $end
$var reg 1 l" use_imm_instead $end
$upscope $end
$scope module if_id_unit $end
$var wire 1 $ clk $end
$var wire 1 Z jump_flag $end
$var wire 1 D rst $end
$var wire 5 m" stall_signal [4:0] $end
$var wire 32 n" pc_i [31:0] $end
$var wire 32 o" inst_i [31:0] $end
$var reg 32 p" inst_o [31:0] $end
$var reg 32 q" pc_o [31:0] $end
$upscope $end
$scope module if_unit $end
$var wire 1 $ clk $end
$var wire 1 [ inst_req $end
$var wire 1 D rst $end
$var wire 32 r" pc_i [31:0] $end
$var wire 32 s" inst_pc [31:0] $end
$var wire 32 t" inst_i [31:0] $end
$var wire 1 ] inst_done $end
$var reg 1 _ if_stall $end
$var reg 32 u" inst_addr_o [31:0] $end
$var reg 32 v" inst_o [31:0] $end
$var reg 32 w" pc_o [31:0] $end
$var integer 32 x" i [31:0] $end
$upscope $end
$scope module mem_ctrl_unit $end
$var wire 1 $ clk $end
$var wire 32 y" inst_addr_i [31:0] $end
$var wire 1 [ inst_req $end
$var wire 8 z" mem_din [7:0] $end
$var wire 1 D rst $end
$var wire 1 P ram_w_req $end
$var wire 32 {" ram_w_data_i [31:0] $end
$var wire 1 R ram_r_req $end
$var wire 32 |" ram_addr_i [31:0] $end
$var wire 4 }" buffer_pointer_i [3:0] $end
$var reg 3 ~" buffer_pointer [2:0] $end
$var reg 32 !# cur_ram_addr [31:0] $end
$var reg 32 "# data_buffer [31:0] $end
$var reg 1 ] inst_done_o $end
$var reg 32 ## inst_o [31:0] $end
$var reg 32 $# inst_pc [31:0] $end
$var reg 32 %# mem_a [31:0] $end
$var reg 8 &# mem_dout [7:0] $end
$var reg 1 : mem_wr $end
$var reg 1 T ram_done_o $end
$var reg 32 '# ram_r_data_o [31:0] $end
$var reg 2 (# ram_state [1:0] $end
$upscope $end
$scope module mem_unit $end
$var wire 5 )# aluop_i [4:0] $end
$var wire 32 *# mem_addr_i [31:0] $end
$var wire 1 T ram_done_i $end
$var wire 32 +# ram_r_data_i [31:0] $end
$var wire 5 ,# rd_addr_i [4:0] $end
$var wire 32 -# rd_data_i [31:0] $end
$var wire 1 K rd_enable_i $end
$var wire 1 D rst $end
$var reg 4 .# buffer_pointer_o [3:0] $end
$var reg 1 I mem_stall $end
$var reg 32 /# ram_addr_o [31:0] $end
$var reg 1 R ram_r_req_o $end
$var reg 32 0# ram_w_data_o [31:0] $end
$var reg 1 P ram_w_req_o $end
$var reg 5 1# rd_addr_o [4:0] $end
$var reg 32 2# rd_data_o [31:0] $end
$var reg 1 J rd_enable_o $end
$upscope $end
$scope module mem_wb_unit $end
$var wire 1 $ clk $end
$var wire 5 3# rd_addr_i [4:0] $end
$var wire 32 4# rd_data_i [31:0] $end
$var wire 1 J rd_enable_i $end
$var wire 1 D rst $end
$var wire 5 5# stall_signal [4:0] $end
$var reg 5 6# rd_addr_o [4:0] $end
$var reg 32 7# rd_data_o [31:0] $end
$var reg 1 E rd_enable_o $end
$upscope $end
$scope module pc_reg_unit $end
$var wire 1 8# branch_flag $end
$var wire 32 9# branch_pc [31:0] $end
$var wire 1 '" branch_taken $end
$var wire 32 :# branch_to [31:0] $end
$var wire 1 $ clk $end
$var wire 1 Z jump_flag $end
$var wire 1 D rst $end
$var wire 5 ;# stall_signal [4:0] $end
$var reg 32 <# pc [31:0] $end
$var integer 32 =# i [31:0] $end
$upscope $end
$scope module register_unit $end
$var wire 1 $ clk $end
$var wire 5 ># read_addr1 [4:0] $end
$var wire 5 ?# read_addr2 [4:0] $end
$var wire 1 l read_enable1 $end
$var wire 1 h read_enable2 $end
$var wire 1 D rst $end
$var wire 5 @# write_addr [4:0] $end
$var wire 32 A# write_data [31:0] $end
$var wire 1 E write_enable $end
$var reg 32 B# read_data1 [31:0] $end
$var reg 32 C# read_data2 [31:0] $end
$var integer 32 D# i [31:0] $end
$upscope $end
$scope module stall_unit $end
$var wire 1 d id_stall $end
$var wire 1 _ if_stall $end
$var wire 1 I mem_stall $end
$var wire 1 E# rst $end
$var reg 5 F# stall_signal [4:0] $end
$upscope $end
$upscope $end
$scope module hci0 $end
$var wire 1 $ clk $end
$var wire 32 G# cpu_dbgreg_din [31:0] $end
$var wire 8 H# io_din [7:0] $end
$var wire 1 2 io_en $end
$var wire 1 1 io_full $end
$var wire 3 I# io_sel [2:0] $end
$var wire 1 ' io_wr $end
$var wire 17 J# ram_a [16:0] $end
$var wire 8 K# ram_din [7:0] $end
$var wire 8 L# ram_dout [7:0] $end
$var wire 1 @ rst $end
$var wire 1 # rx $end
$var wire 1 M# tx_full $end
$var wire 1 > tx $end
$var wire 1 N# rx_empty $end
$var wire 8 O# rd_data [7:0] $end
$var wire 1 P# parity_err $end
$var wire 8 Q# io_in_rd_data [7:0] $end
$var wire 1 R# io_in_full $end
$var wire 1 S# io_in_empty $end
$var wire 8 T# io_dout [7:0] $end
$var wire 32 U# d_cpu_cycle_cnt [31:0] $end
$var wire 1 4 active $end
$var reg 17 V# d_addr [16:0] $end
$var reg 3 W# d_decode_cnt [2:0] $end
$var reg 2 X# d_err_code [1:0] $end
$var reg 17 Y# d_execute_cnt [16:0] $end
$var reg 8 Z# d_io_dout [7:0] $end
$var reg 8 [# d_io_in_wr_data [7:0] $end
$var reg 1 \# d_io_in_wr_en $end
$var reg 1 ]# d_program_finish $end
$var reg 5 ^# d_state [4:0] $end
$var reg 8 _# d_tx_data [7:0] $end
$var reg 1 `# d_wr_en $end
$var reg 1 a# io_in_rd_en $end
$var reg 1 b# program_finish $end
$var reg 17 c# q_addr [16:0] $end
$var reg 32 d# q_cpu_cycle_cnt [31:0] $end
$var reg 3 e# q_decode_cnt [2:0] $end
$var reg 2 f# q_err_code [1:0] $end
$var reg 17 g# q_execute_cnt [16:0] $end
$var reg 8 h# q_io_dout [7:0] $end
$var reg 1 i# q_io_en $end
$var reg 8 j# q_io_in_wr_data [7:0] $end
$var reg 1 k# q_io_in_wr_en $end
$var reg 5 l# q_state [4:0] $end
$var reg 8 m# q_tx_data [7:0] $end
$var reg 1 n# q_wr_en $end
$var reg 1 - ram_wr $end
$var reg 1 o# rd_en $end
$scope module io_in_fifo $end
$var wire 10 p# addr_bits_wide_1 [9:0] $end
$var wire 1 $ clk $end
$var wire 1 q# d_empty $end
$var wire 1 r# d_full $end
$var wire 1 S# empty $end
$var wire 1 R# full $end
$var wire 8 s# rd_data [7:0] $end
$var wire 1 a# rd_en $end
$var wire 1 t# rd_en_prot $end
$var wire 1 @ reset $end
$var wire 8 u# wr_data [7:0] $end
$var wire 1 k# wr_en $end
$var wire 1 v# wr_en_prot $end
$var wire 10 w# d_wr_ptr [9:0] $end
$var wire 10 x# d_rd_ptr [9:0] $end
$var wire 8 y# d_data [7:0] $end
$var reg 1 z# q_empty $end
$var reg 1 {# q_full $end
$var reg 10 |# q_rd_ptr [9:0] $end
$var reg 10 }# q_wr_ptr [9:0] $end
$upscope $end
$scope module uart_blk $end
$var wire 1 $ clk $end
$var wire 1 ~# d_rx_parity_err $end
$var wire 1 P# parity_err $end
$var wire 1 o# rd_en $end
$var wire 1 @ reset $end
$var wire 1 # rx $end
$var wire 8 !$ tx_data [7:0] $end
$var wire 1 n# wr_en $end
$var wire 1 M# tx_full $end
$var wire 8 "$ tx_fifo_rd_data [7:0] $end
$var wire 1 #$ tx_fifo_empty $end
$var wire 1 $$ tx_done_tick $end
$var wire 1 > tx $end
$var wire 1 %$ rx_parity_err $end
$var wire 8 &$ rx_fifo_wr_data [7:0] $end
$var wire 1 N# rx_empty $end
$var wire 1 '$ rx_done_tick $end
$var wire 8 ($ rx_data [7:0] $end
$var wire 1 )$ baud_clk_tick $end
$var reg 1 *$ q_rx_parity_err $end
$scope module uart_baud_clk_blk $end
$var wire 1 $ clk $end
$var wire 1 @ reset $end
$var wire 16 +$ d_cnt [15:0] $end
$var wire 1 )$ baud_clk_tick $end
$var reg 16 ,$ q_cnt [15:0] $end
$upscope $end
$scope module uart_rx_blk $end
$var wire 1 )$ baud_clk_tick $end
$var wire 1 $ clk $end
$var wire 1 @ reset $end
$var wire 1 # rx $end
$var wire 8 -$ rx_data [7:0] $end
$var wire 1 '$ rx_done_tick $end
$var wire 1 %$ parity_err $end
$var reg 8 .$ d_data [7:0] $end
$var reg 3 /$ d_data_bit_idx [2:0] $end
$var reg 1 0$ d_done_tick $end
$var reg 4 1$ d_oversample_tick_cnt [3:0] $end
$var reg 1 2$ d_parity_err $end
$var reg 5 3$ d_state [4:0] $end
$var reg 8 4$ q_data [7:0] $end
$var reg 3 5$ q_data_bit_idx [2:0] $end
$var reg 1 '$ q_done_tick $end
$var reg 4 6$ q_oversample_tick_cnt [3:0] $end
$var reg 1 %$ q_parity_err $end
$var reg 1 7$ q_rx $end
$var reg 5 8$ q_state [4:0] $end
$upscope $end
$scope module uart_rx_fifo $end
$var wire 3 9$ addr_bits_wide_1 [2:0] $end
$var wire 1 $ clk $end
$var wire 1 :$ d_empty $end
$var wire 1 ;$ d_full $end
$var wire 1 N# empty $end
$var wire 1 <$ full $end
$var wire 8 =$ rd_data [7:0] $end
$var wire 1 o# rd_en $end
$var wire 1 >$ rd_en_prot $end
$var wire 1 @ reset $end
$var wire 8 ?$ wr_data [7:0] $end
$var wire 1 '$ wr_en $end
$var wire 1 @$ wr_en_prot $end
$var wire 3 A$ d_wr_ptr [2:0] $end
$var wire 3 B$ d_rd_ptr [2:0] $end
$var wire 8 C$ d_data [7:0] $end
$var reg 1 D$ q_empty $end
$var reg 1 E$ q_full $end
$var reg 3 F$ q_rd_ptr [2:0] $end
$var reg 3 G$ q_wr_ptr [2:0] $end
$upscope $end
$scope module uart_tx_blk $end
$var wire 1 )$ baud_clk_tick $end
$var wire 1 $ clk $end
$var wire 1 @ reset $end
$var wire 1 > tx $end
$var wire 1 $$ tx_done_tick $end
$var wire 1 H$ tx_start $end
$var wire 8 I$ tx_data [7:0] $end
$var reg 4 J$ d_baud_clk_tick_cnt [3:0] $end
$var reg 8 K$ d_data [7:0] $end
$var reg 3 L$ d_data_bit_idx [2:0] $end
$var reg 1 M$ d_parity_bit $end
$var reg 5 N$ d_state [4:0] $end
$var reg 1 O$ d_tx $end
$var reg 1 P$ d_tx_done_tick $end
$var reg 4 Q$ q_baud_clk_tick_cnt [3:0] $end
$var reg 8 R$ q_data [7:0] $end
$var reg 3 S$ q_data_bit_idx [2:0] $end
$var reg 1 T$ q_parity_bit $end
$var reg 5 U$ q_state [4:0] $end
$var reg 1 V$ q_tx $end
$var reg 1 $$ q_tx_done_tick $end
$upscope $end
$scope module uart_tx_fifo $end
$var wire 10 W$ addr_bits_wide_1 [9:0] $end
$var wire 1 $ clk $end
$var wire 1 X$ d_empty $end
$var wire 1 Y$ d_full $end
$var wire 1 #$ empty $end
$var wire 1 M# full $end
$var wire 8 Z$ rd_data [7:0] $end
$var wire 1 $$ rd_en $end
$var wire 1 [$ rd_en_prot $end
$var wire 1 @ reset $end
$var wire 8 \$ wr_data [7:0] $end
$var wire 1 n# wr_en $end
$var wire 1 ]$ wr_en_prot $end
$var wire 10 ^$ d_wr_ptr [9:0] $end
$var wire 10 _$ d_rd_ptr [9:0] $end
$var wire 8 `$ d_data [7:0] $end
$var reg 1 a$ q_empty $end
$var reg 1 b$ q_full $end
$var reg 10 c$ q_rd_ptr [9:0] $end
$var reg 10 d$ q_wr_ptr [9:0] $end
$upscope $end
$upscope $end
$upscope $end
$scope module ram0 $end
$var wire 17 e$ a_in [16:0] $end
$var wire 1 $ clk_in $end
$var wire 8 f$ d_in [7:0] $end
$var wire 1 * en_in $end
$var wire 1 g$ r_nw_in $end
$var wire 1 h$ ram_bram_we $end
$var wire 8 i$ ram_bram_dout [7:0] $end
$var wire 8 j$ d_out [7:0] $end
$scope module ram_bram $end
$var wire 17 k$ addr_a [16:0] $end
$var wire 1 $ clk $end
$var wire 8 l$ din_a [7:0] $end
$var wire 8 m$ dout_a [7:0] $end
$var wire 1 h$ we $end
$var reg 17 n$ q_addr_a [16:0] $end
$var integer 32 o$ i [31:0] $end
$upscope $end
$upscope $end
$upscope $end
$upscope $end
$enddefinitions $end
#0
$dumpvars
b100000000000000000 o$
bx n$
bx m$
bx l$
bx k$
bx j$
bx i$
xh$
xg$
bx f$
bx e$
bx d$
bx c$
xb$
xa$
bx `$
bx _$
bx ^$
x]$
bx \$
0[$
bx Z$
xY$
xX$
b1 W$
1V$
b1 U$
0T$
b0 S$
b0 R$
b0 Q$
0P$
1O$
b1 N$
0M$
b0 L$
b0 K$
b0 J$
bx I$
xH$
bx G$
bx F$
xE$
xD$
bx C$
bx B$
bx A$
0@$
b0 ?$
0>$
bx =$
x<$
x;$
x:$
b1 9$
b1 8$
17$
b0 6$
b0 5$
b0 4$
b1 3$
02$
b0 1$
00$
b0 /$
b0 .$
b0 -$
b0 ,$
b1 +$
0*$
0)$
bx ($
0'$
b0 &$
0%$
0$$
x#$
bx "$
bx !$
0~#
bx }#
bx |#
x{#
xz#
bx y#
bx x#
bx w#
xv#
bx u#
0t#
bx s#
xr#
xq#
b1 p#
0o#
xn#
bx m#
bx l#
xk#
bx j#
xi#
bx h#
bx g#
bx f#
bx e#
bx d#
bx c#
xb#
0a#
0`#
b0 _#
bx ^#
0]#
0\#
b0 [#
b0 Z#
bx Y#
bx X#
bx W#
bx V#
bx U#
bx T#
xS#
xR#
bx Q#
0P#
bx O#
xN#
xM#
bx L#
bx K#
bx J#
bx I#
bx H#
bz G#
b0 F#
zE#
bx D#
b0 C#
b0 B#
bx A#
bx @#
bx ?#
bx >#
bx =#
bx <#
b0 ;#
bx :#
bx 9#
z8#
bx 7#
bx 6#
b0 5#
b0 4#
b0 3#
b0 2#
b0 1#
b0 0#
b0 /#
b0 .#
bx -#
bx ,#
bx +#
bx *#
bx )#
bx (#
bx '#
bx &#
bx %#
bx $#
bx ##
bx "#
bx !#
bx ~"
b0 }"
b0 |"
b0 {"
bx z"
bx y"
bx x"
b0 w"
b0 v"
bx u"
bx t"
bx s"
bx r"
bx q"
bx p"
b0 o"
b0 n"
b0 m"
xl"
0k"
b0 j"
0i"
b0 h"
bx g"
bx f"
bx e"
bx d"
bx c"
bx b"
bx a"
b0 `"
b0 _"
bx ^"
bx ]"
bx \"
b0 ["
bx Z"
b0 Y"
bx X"
bx W"
b0 V"
bx U"
bx T"
bx S"
bx R"
bx Q"
bx P"
bx O"
bx N"
bx M"
bx L"
bx K"
b0 J"
b0 I"
bx H"
b0 G"
b0 F"
bx E"
b0 D"
b0 C"
b0 B"
b0 A"
bx @"
bx ?"
x>"
b0 ="
b0 <"
bx ;"
bx :"
bx 9"
b0 8"
bx 7"
bx 6"
bx 5"
bx 4"
bx 3"
bx 2"
bx 1"
bx 0"
bx /"
bx ."
b0 -"
b0 ,"
bx +"
b0 *"
b0 )"
bx ("
x'"
bx &"
b0 %"
bx $"
b0 #"
bx ""
bx !"
0~
b0 }
b0 |
bx {
bx z
bx y
bx x
xw
xv
bx u
bx t
bx s
bx r
bx q
bx p
bx o
bx n
b0 m
xl
b0 k
bx j
b0 i
xh
b0 g
xf
bx e
0d
bx c
b0 b
bx a
b0 `
0_
bx ^
x]
bx \
x[
xZ
bx Y
bx X
bx W
bx V
b0 U
xT
bx S
0R
b0 Q
0P
bx O
b0 N
bx M
b0 L
xK
0J
0I
b0 H
bx G
bx F
xE
1D
bx C
bz B
1A
1@
x?
1>
bx =
bx <
bx ;
x:
19
bx 8
bx 7
x6
05
x4
bx 3
x2
x1
bx 0
bx /
bx .
0-
bx ,
bx +
x*
0)
bx (
x'
bx &
bz %
0$
z#
1"
0!
$end
#1000
0h$
1[
02
1*
1g$
b0 0
b0 I#
b0 ,
b0 e$
b0 k$
1q#
0r#
0;$
1:$
1X$
0Y$
b0 e
b0 H"
b0 X"
b0 j
b0 Z"
b0 ?#
b0 n
b0 \"
b0 >#
b0 c"
b0 b"
b0 ^"
b0 o
b0 9"
b0 K"
b0 g"
0l"
b0 s
b0 M"
b0 e"
b0 t
b0 N"
b0 d"
0h
0l
0f
b0 r
b0 L"
b0 f"
0'
06
b0 8
b0 &
b0 H#
b0 7
b0 f$
b0 l$
b0 w#
b0 x#
b0 A$
b0 B$
0H$
b0 ^$
b0 _$
0v#
0]$
b0 X#
b0 V#
b0 Y#
b0 W#
b1 ^#
b0 U#
b0 a
b0 r"
b0 <#
b0 ^
b0 u"
b0 y"
b0 q
b0 a"
b0 p"
b0 p
b0 ]"
b0 q"
b0 {
b0 5"
b0 R"
b0 ""
b0 :"
b0 P"
b0 $"
b0 ;"
b0 O"
0w
b0 u
b0 2"
b0 U"
b0 6"
b0 !"
b0 7"
b0 Q"
b0 y
b0 3"
b0 T"
b0 z
b0 4"
b0 S"
b0 V
b0 /"
b0 *#
0K
b0 O
b0 0"
b0 ,#
b0 M
b0 1"
b0 -#
b0 X
b0 ."
b0 )#
b0 \
b0 s"
b0 $#
b10 (#
b0 ~"
0:
b0 "#
b0 =
b0 Y
b0 %#
b0 ;
b0 W
b0 &#
0T
b0 S
b0 '#
b0 +#
0]
b0 c
b0 t"
b0 ##
0E
b0 G
b0 6#
b0 @#
b0 F
b0 7#
b0 A#
0R#
0{#
1S#
1z#
b0 }#
b0 |#
0<$
0E$
1N#
1D$
b0 G$
b0 F$
01
0M#
0b$
1#$
1a$
b0 d$
b0 c$
b0 3
b0 T#
b0 h#
b0 d#
0i#
b0 j#
b0 u#
0k#
0n#
b0 m#
b0 !$
b0 \$
b0 f#
b0 /
b0 J#
b0 c#
b0 g#
b0 e#
14
b1 l#
b10000000 =#
b10000000 x"
b100000 D#
1$
1!
#2000
0$
0!
#3000
b110111 <
b110111 C
b110111 z"
b110111 (
b110111 K#
b110111 +
b110111 j$
0?
b110111 i$
b110111 m$
b0 n$
b100000 D#
b10000000 x"
b10000000 =#
1$
1!
#4000
0$
0!
#5000
b10000000 =#
b10000000 x"
b100000 D#
1$
1!
#6000
0$
0!
#7000
b100000 D#
b10000000 x"
b10000000 =#
1$
1!
#8000
0$
0!
#9000
b10000000 =#
b10000000 x"
b100000 D#
1$
1!
#10000
0$
0!
#11000
b100000 D#
b10000000 x"
b10000000 =#
1$
1!
#12000
0$
0!
#13000
b10000000 =#
b10000000 x"
b100000 D#
1$
1!
#14000
0$
0!
#15000
b100000 D#
b10000000 x"
b10000000 =#
1$
1!
#16000
0$
0!
#17000
b10000000 =#
b10000000 x"
b100000 D#
1$
1!
#18000
0$
0!
#19000
b100000 D#
b10000000 x"
b10000000 =#
1$
1!
#20000
0$
0!
#21000
b10000000 =#
b10000000 x"
b100000 D#
1$
1!
#22000
0$
0!
#23000
b100000 D#
b10000000 x"
b10000000 =#
1$
1!
#24000
0$
0!
#25000
b10000000 =#
b10000000 x"
b100000 D#
1$
1!
#26000
0$
0!
#27000
b100000 D#
b10000000 x"
b10000000 =#
1$
1!
#28000
0$
0!
#29000
b10000000 =#
b10000000 x"
b100000 D#
1$
1!
#30000
0$
0!
#31000
b100000 D#
b10000000 x"
b10000000 =#
1$
1!
#32000
0$
0!
#33000
b10000000 =#
b10000000 x"
b100000 D#
1$
1!
#34000
0$
0!
#35000
b100000 D#
b10000000 x"
b10000000 =#
1$
1!
#36000
0$
0!
#37000
b10000000 =#
b10000000 x"
b100000 D#
1$
1!
#38000
0$
0!
#39000
b100000 D#
b10000000 x"
b10000000 =#
1$
1!
#40000
0$
0!
#41000
b10000000 =#
b10000000 x"
b100000 D#
1$
1!
#42000
0$
0!
#43000
b100000 D#
b10000000 x"
b10000000 =#
1$
1!
#44000
0$
0!
#45000
b10000000 =#
b10000000 x"
b100000 D#
1$
1!
#46000
0$
0!
#47000
b100000 D#
b10000000 x"
b10000000 =#
1$
1!
#48000
0$
0!
#49000
b10000000 =#
b10000000 x"
b100000 D#
1$
1!
#50000
0"
0$
0!
#51000
0A
b100000 D#
b10000000 x"
b10000000 =#
1$
1!
#52000
0$
0!
#53000
b11 H
b11 )"
b11 G"
b11 m"
b11 5#
b11 ;#
b11 F#
0'"
0Z
0>"
b0 ("
b0 ?"
b0 9#
b0 x
b0 +"
b0 E"
b0 W"
0v
1_
0D
0@
b10000000 =#
b10000000 x"
b100000 D#
1$
1!
#54000
0$
0!
#55000
b10 +$
0b#
b0 !#
b11 (#
b1 ,$
z7$
1$
1!
#56000
0$
0!
#57000
b1 0
b1 I#
b1 ,
b1 e$
b1 k$
b1 8
b11 +$
b1 ~"
b1 =
b1 Y
b1 %#
b10 ,$
1$
1!
#58000
0$
0!
#59000
b10 0
b10 I#
b10 ,
b10 e$
b10 k$
b1 <
b1 C
b1 z"
b10 8
b1 (
b1 K#
b1 +
b1 j$
b100 +$
b10 ~"
b10 =
b10 Y
b10 %#
b110111 "#
b1 i$
b1 m$
b1 n$
b11 ,$
1$
1!
#60000
0$
0!
#61000
b10 <
b10 C
b10 z"
b11 0
b11 I#
b11 ,
b11 e$
b11 k$
b10 (
b10 K#
b10 +
b10 j$
b11 8
b101 +$
b10 i$
b10 m$
b10 n$
b11 ~"
b11 =
b11 Y
b11 %#
b100110111 "#
b100 ,$
1$
1!
#62000
0$
0!
#63000
b0 <
b0 C
b0 z"
b0 (
b0 K#
b0 +
b0 j$
b110 +$
b100 ~"
b100000000100110111 "#
b0 i$
b0 m$
b11 n$
b101 ,$
1$
1!
#64000
0$
0!
