riscv/src/wave.vcd
$date
	Tue Dec  8 05:09:37 2020
$end
$version
	Icarus Verilog
$end
$timescale
	1ps
$end
$scope module testbench $end
$var reg 1 ! clk $end
$var reg 1 " rst $end
$scope module top $end
$var wire 1 ! EXCLK $end
$var wire 1 # Rx $end
$var wire 1 " btnC $end
$var wire 1 $ clk $end
$var wire 32 % cpu_dbgreg_dout [31:0] $end
$var wire 8 & hci_io_din [7:0] $end
$var wire 1 ' hci_io_wr $end
$var wire 8 ( hci_ram_din [7:0] $end
$var wire 1 ) led $end
$var wire 1 * ram_en $end
$var wire 8 + ram_dout [7:0] $end
$var wire 17 , ram_a [16:0] $end
$var wire 1 - hci_ram_wr $end
$var wire 8 . hci_ram_dout [7:0] $end
$var wire 17 / hci_ram_a [16:0] $end
$var wire 3 0 hci_io_sel [2:0] $end
$var wire 1 1 hci_io_full $end
$var wire 1 2 hci_io_en $end
$var wire 8 3 hci_io_dout [7:0] $end
$var wire 1 4 hci_active_out $end
$var wire 1 5 hci_active $end
$var wire 1 6 cpumc_wr $end
$var wire 8 7 cpumc_din [7:0] $end
$var wire 32 8 cpumc_a [31:0] $end
$var wire 1 9 cpu_rdy $end
$var wire 1 : cpu_ram_wr $end
$var wire 8 ; cpu_ram_dout [7:0] $end
$var wire 8 < cpu_ram_din [7:0] $end
$var wire 32 = cpu_ram_a [31:0] $end
$var wire 1 > Tx $end
$var reg 1 ? q_hci_io_en $end
$var reg 1 @ rst $end
$var reg 1 A rst_delay $end
$scope module cpu0 $end
$var wire 1 $ clk_in $end
$var wire 32 B dbgreg_dout [31:0] $end
$var wire 8 C mem_din [7:0] $end
$var wire 1 9 rdy_in $end
$var wire 1 @ rst_in $end
$var wire 1 D rst_in_ $end
$var wire 1 E wb_enable $end
$var wire 32 F wb_data [31:0] $end
$var wire 5 G wb_addr [4:0] $end
$var wire 5 H stall_signal [4:0] $end
$var wire 1 : mem_wr $end
$var wire 1 I mem_stall_o $end
$var wire 1 J mem_rd_enable_o $end
$var wire 1 K mem_rd_enable_i $end
$var wire 32 L mem_rd_data_o [31:0] $end
$var wire 32 M mem_rd_data_i [31:0] $end
$var wire 5 N mem_rd_addr_o [4:0] $end
$var wire 5 O mem_rd_addr_i [4:0] $end
$var wire 1 P mem_ram_w_req_o $end
$var wire 32 Q mem_ram_w_data_o [31:0] $end
$var wire 1 R mem_ram_r_req_o $end
$var wire 32 S mem_ram_r_data_i [31:0] $end
$var wire 1 T mem_ram_done_i $end
$var wire 32 U mem_ram_addr_o [31:0] $end
$var wire 32 V mem_mem_addr_i [31:0] $end
$var wire 8 W mem_dout [7:0] $end
$var wire 5 X mem_aluop_i [4:0] $end
$var wire 32 Y mem_a [31:0] $end
$var wire 1 Z jump_flag $end
$var wire 1 1 io_buffer_full $end
$var wire 1 [ inst_req $end
$var wire 32 \ inst_pc [31:0] $end
$var wire 1 ] inst_done $end
$var wire 32 ^ inst_addr_o [31:0] $end
$var wire 1 _ if_stall_o $end
$var wire 32 ` if_pc_o [31:0] $end
$var wire 32 a if_pc_i [31:0] $end
$var wire 32 b if_inst_o [31:0] $end
$var wire 32 c if_inst_i [31:0] $end
$var wire 1 d id_stall_o $end
$var wire 5 e id_rd_o [4:0] $end
$var wire 1 f id_rd_enable_o $end
$var wire 32 g id_r2_o [31:0] $end
$var wire 1 h id_r2_enable_o $end
$var wire 32 i id_r2_data_i [31:0] $end
$var wire 5 j id_r2_addr_o [4:0] $end
$var wire 32 k id_r1_o [31:0] $end
$var wire 1 l id_r1_enable_o $end
$var wire 32 m id_r1_data_i [31:0] $end
$var wire 5 n id_r1_addr_o [4:0] $end
$var wire 32 o id_pc_o [31:0] $end
$var wire 32 p id_pc_i [31:0] $end
$var wire 32 q id_inst_i [31:0] $end
$var wire 32 r id_imm_o [31:0] $end
$var wire 3 s id_alusel_o [2:0] $end
$var wire 5 t id_aluop_o [4:0] $end
$var wire 5 u ex_rd_i [4:0] $end
$var wire 1 v ex_rd_enable_o $end
$var wire 1 w ex_rd_enable_i $end
$var wire 5 x ex_rd_addr_o [4:0] $end
$var wire 32 y ex_r2_i [31:0] $end
$var wire 32 z ex_r1_i [31:0] $end
$var wire 32 { ex_pc_i [31:0] $end
$var wire 32 | ex_output_o [31:0] $end
$var wire 32 } ex_mem_addr_o [31:0] $end
$var wire 1 ~ ex_ld_flag_o $end
$var wire 32 !" ex_imm_i [31:0] $end
$var wire 3 "" ex_alusel_i [2:0] $end
$var wire 5 #" ex_aluop_o [4:0] $end
$var wire 5 $" ex_aluop_i [4:0] $end
$var wire 32 %" branch_to [31:0] $end
$scope module ex_mem_unit $end
$var wire 1 $ clk $end
$var wire 1 D rst $end
$var wire 5 &" stall_signal [4:0] $end
$var wire 1 v rd_enable_i $end
$var wire 32 '" rd_data_i [31:0] $end
$var wire 5 (" rd_addr_i [4:0] $end
$var wire 32 )" mem_addr_i [31:0] $end
$var wire 5 *" aluop_i [4:0] $end
$var reg 5 +" aluop_o [4:0] $end
$var reg 32 ," mem_addr_o [31:0] $end
$var reg 5 -" rd_addr_o [4:0] $end
$var reg 32 ." rd_data_o [31:0] $end
$var reg 1 K rd_enable_o $end
$upscope $end
$scope module ex_unit $end
$var wire 1 D rst $end
$var wire 1 w rd_enable $end
$var wire 5 /" rd [4:0] $end
$var wire 32 0" r2 [31:0] $end
$var wire 32 1" r1 [31:0] $end
$var wire 32 2" pc [31:0] $end
$var wire 32 3" jalr_to [31:0] $end
$var wire 32 4" imm [31:0] $end
$var wire 3 5" alusel [2:0] $end
$var wire 5 6" aluop [4:0] $end
$var reg 5 7" aluop_o [4:0] $end
$var reg 32 8" arith_out [31:0] $end
$var reg 32 9" branch_to [31:0] $end
$var reg 1 Z jump_flag $end
$var reg 1 ~ ld_flag $end
$var reg 32 :" logic_out [31:0] $end
$var reg 32 ;" mem_addr_o [31:0] $end
$var reg 32 <" output_ [31:0] $end
$var reg 5 =" rd_addr_o [4:0] $end
$var reg 1 v rd_enable_o $end
$var reg 32 >" shift_out [31:0] $end
$upscope $end
$scope module id_ex_unit $end
$var wire 1 $ clk $end
$var wire 1 Z jump_flag $end
$var wire 1 D rst $end
$var wire 5 ?" stall_signal [4:0] $end
$var wire 5 @" rd_i [4:0] $end
$var wire 1 f rd_enable_i $end
$var wire 32 A" r2_i [31:0] $end
$var wire 32 B" r1_i [31:0] $end
$var wire 32 C" pc_i [31:0] $end
$var wire 32 D" imm_i [31:0] $end
$var wire 3 E" alusel_i [2:0] $end
$var wire 5 F" aluop_i [4:0] $end
$var reg 5 G" aluop_o [4:0] $end
$var reg 3 H" alusel_o [2:0] $end
$var reg 32 I" imm_o [31:0] $end
$var reg 32 J" pc_o [31:0] $end
$var reg 32 K" r1_o [31:0] $end
$var reg 32 L" r2_o [31:0] $end
$var reg 1 w rd_enable_o $end
$var reg 5 M" rd_o [4:0] $end
$upscope $end
$scope module id_unit $end
$var wire 32 N" ex_forward [31:0] $end
$var wire 5 O" ex_wb_addr [4:0] $end
$var wire 1 v ex_wb_flag $end
$var wire 1 d id_stall $end
$var wire 1 ~ ld_flag $end
$var wire 1 D rst $end
$var wire 5 P" rd [4:0] $end
$var wire 32 Q" r2_data_i [31:0] $end
$var wire 5 R" r2_addr [4:0] $end
$var wire 32 S" r1_data_i [31:0] $end
$var wire 5 T" r1_addr [4:0] $end
$var wire 32 U" pc_i [31:0] $end
$var wire 7 V" opcode [6:0] $end
$var wire 1 J mem_wb_flag $end
$var wire 5 W" mem_wb_addr [4:0] $end
$var wire 32 X" mem_forward [31:0] $end
$var wire 32 Y" inst [31:0] $end
$var wire 7 Z" func7 [6:0] $end
$var wire 3 [" func3 [2:0] $end
$var reg 5 \" aluop [4:0] $end
$var reg 3 ]" alusel [2:0] $end
$var reg 32 ^" imm [31:0] $end
$var reg 32 _" pc_o [31:0] $end
$var reg 32 `" r1 [31:0] $end
$var reg 1 l r1_read_enable $end
$var reg 1 a" r1_stall $end
$var reg 32 b" r2 [31:0] $end
$var reg 1 h r2_read_enable $end
$var reg 1 c" r2_stall $end
$var reg 1 f rd_enable $end
$var reg 1 d" use_imm_instead $end
$upscope $end
$scope module if_id_unit $end
$var wire 1 $ clk $end
$var wire 1 Z jump_flag $end
$var wire 1 D rst $end
$var wire 5 e" stall_signal [4:0] $end
$var wire 32 f" pc_i [31:0] $end
$var wire 32 g" inst_i [31:0] $end
$var reg 32 h" inst_o [31:0] $end
$var reg 32 i" pc_o [31:0] $end
$upscope $end
$scope module if_unit $end
$var wire 1 $ clk $end
$var wire 1 [ inst_req $end
$var wire 1 D rst $end
$var wire 32 j" pc_i [31:0] $end
$var wire 32 k" inst_pc [31:0] $end
$var wire 32 l" inst_i [31:0] $end
$var wire 1 ] inst_done $end
$var reg 1 _ if_stall $end
$var reg 32 m" inst_addr_o [31:0] $end
$var reg 32 n" inst_o [31:0] $end
$var reg 32 o" pc_o [31:0] $end
$var integer 32 p" i [31:0] $end
$upscope $end
$scope module mem_ctrl_unit $end
$var wire 1 $ clk $end
$var wire 32 q" inst_addr_i [31:0] $end
$var wire 1 [ inst_req $end
$var wire 8 r" mem_din [7:0] $end
$var wire 1 D rst $end
$var wire 1 P ram_w_req $end
$var wire 32 s" ram_w_data_i [31:0] $end
$var wire 1 R ram_r_req $end
$var wire 32 t" ram_addr_i [31:0] $end
$var reg 3 u" buffer_pointer [2:0] $end
$var reg 32 v" cur_ram_addr [31:0] $end
$var reg 32 w" data_buffer [31:0] $end
$var reg 1 ] inst_done_o $end
$var reg 32 x" inst_o [31:0] $end
$var reg 32 y" inst_pc [31:0] $end
$var reg 32 z" mem_a [31:0] $end
$var reg 8 {" mem_dout [7:0] $end
$var reg 1 : mem_wr $end
$var reg 1 T ram_done_o $end
$var reg 32 |" ram_r_data_o [31:0] $end
$var reg 2 }" ram_state [1:0] $end
$upscope $end
$scope module mem_unit $end
$var wire 5 ~" aluop_i [4:0] $end
$var wire 32 !# mem_addr_i [31:0] $end
$var wire 1 T ram_done_i $end
$var wire 32 "# ram_r_data_i [31:0] $end
$var wire 5 ## rd_addr_i [4:0] $end
$var wire 32 $# rd_data_i [31:0] $end
$var wire 1 K rd_enable_i $end
$var wire 1 D rst $end
$var reg 1 I mem_stall $end
$var reg 32 %# ram_addr_o [31:0] $end
$var reg 1 R ram_r_req_o $end
$var reg 32 &# ram_w_data_o [31:0] $end
$var reg 1 P ram_w_req_o $end
$var reg 5 '# rd_addr_o [4:0] $end
$var reg 32 (# rd_data_o [31:0] $end
$var reg 1 J rd_enable_o $end
$upscope $end
$scope module mem_wb_unit $end
$var wire 1 $ clk $end
$var wire 5 )# rd_addr_i [4:0] $end
$var wire 32 *# rd_data_i [31:0] $end
$var wire 1 J rd_enable_i $end
$var wire 1 D rst $end
$var wire 5 +# stall_signal [4:0] $end
$var reg 5 ,# rd_addr_o [4:0] $end
$var reg 32 -# rd_data_o [31:0] $end
$var reg 1 E rd_enable_o $end
$upscope $end
$scope module pc_reg_unit $end
$var wire 32 .# branch_to [31:0] $end
$var wire 1 $ clk $end
$var wire 1 Z jump_flag $end
$var wire 1 D rst $end
$var wire 5 /# stall_signal [4:0] $end
$var reg 32 0# pc [31:0] $end
$upscope $end
$scope module register_unit $end
$var wire 1 $ clk $end
$var wire 5 1# read_addr1 [4:0] $end
$var wire 5 2# read_addr2 [4:0] $end
$var wire 1 l read_enable1 $end
$var wire 1 h read_enable2 $end
$var wire 1 D rst $end
$var wire 5 3# write_addr [4:0] $end
$var wire 32 4# write_data [31:0] $end
$var wire 1 E write_enable $end
$var reg 32 5# read_data1 [31:0] $end
$var reg 32 6# read_data2 [31:0] $end
$var integer 32 7# i [31:0] $end
$upscope $end
$scope module stall_unit $end
$var wire 1 d id_stall $end
$var wire 1 _ if_stall $end
$var wire 1 I mem_stall $end
$var wire 1 8# rst $end
$var reg 5 9# stall_signal [4:0] $end
$upscope $end
$upscope $end
$scope module hci0 $end
$var wire 1 $ clk $end
$var wire 32 :# cpu_dbgreg_din [31:0] $end
$var wire 8 ;# io_din [7:0] $end
$var wire 1 2 io_en $end
$var wire 1 1 io_full $end
$var wire 3 <# io_sel [2:0] $end
$var wire 1 ' io_wr $end
$var wire 17 =# ram_a [16:0] $end
$var wire 8 ># ram_din [7:0] $end
$var wire 8 ?# ram_dout [7:0] $end
$var wire 1 @ rst $end
$var wire 1 # rx $end
$var wire 1 @# tx_full $end
$var wire 1 > tx $end
$var wire 1 A# rx_empty $end
$var wire 8 B# rd_data [7:0] $end
$var wire 1 C# parity_err $end
$var wire 8 D# io_in_rd_data [7:0] $end
$var wire 1 E# io_in_full $end
$var wire 1 F# io_in_empty $end
$var wire 8 G# io_dout [7:0] $end
$var wire 32 H# d_cpu_cycle_cnt [31:0] $end
$var wire 1 4 active $end
$var reg 17 I# d_addr [16:0] $end
$var reg 3 J# d_decode_cnt [2:0] $end
$var reg 2 K# d_err_code [1:0] $end
$var reg 17 L# d_execute_cnt [16:0] $end
$var reg 8 M# d_io_dout [7:0] $end
$var reg 8 N# d_io_in_wr_data [7:0] $end
$var reg 1 O# d_io_in_wr_en $end
$var reg 5 P# d_state [4:0] $end
$var reg 8 Q# d_tx_data [7:0] $end
$var reg 1 R# d_wr_en $end
$var reg 1 S# io_in_rd_en $end
$var reg 17 T# q_addr [16:0] $end
$var reg 32 U# q_cpu_cycle_cnt [31:0] $end
$var reg 3 V# q_decode_cnt [2:0] $end
$var reg 2 W# q_err_code [1:0] $end
$var reg 17 X# q_execute_cnt [16:0] $end
$var reg 8 Y# q_io_dout [7:0] $end
$var reg 1 Z# q_io_en $end
$var reg 8 [# q_io_in_wr_data [7:0] $end
$var reg 1 \# q_io_in_wr_en $end
$var reg 5 ]# q_state [4:0] $end
$var reg 8 ^# q_tx_data [7:0] $end
$var reg 1 _# q_wr_en $end
$var reg 1 - ram_wr $end
$var reg 1 `# rd_en $end
$scope module io_in_fifo $end
$var wire 10 a# addr_bits_wide_1 [9:0] $end
$var wire 1 $ clk $end
$var wire 1 b# d_empty $end
$var wire 1 c# d_full $end
$var wire 1 F# empty $end
$var wire 1 E# full $end
$var wire 8 d# rd_data [7:0] $end
$var wire 1 S# rd_en $end
$var wire 1 e# rd_en_prot $end
$var wire 1 @ reset $end
$var wire 8 f# wr_data [7:0] $end
$var wire 1 \# wr_en $end
$var wire 1 g# wr_en_prot $end
$var wire 10 h# d_wr_ptr [9:0] $end
$var wire 10 i# d_rd_ptr [9:0] $end
$var wire 8 j# d_data [7:0] $end
$var reg 1 k# q_empty $end
$var reg 1 l# q_full $end
$var reg 10 m# q_rd_ptr [9:0] $end
$var reg 10 n# q_wr_ptr [9:0] $end
$upscope $end
$scope module uart_blk $end
$var wire 1 $ clk $end
$var wire 1 o# d_rx_parity_err $end
$var wire 1 C# parity_err $end
$var wire 1 `# rd_en $end
$var wire 1 @ reset $end
$var wire 1 # rx $end
$var wire 8 p# tx_data [7:0] $end
$var wire 1 _# wr_en $end
$var wire 1 @# tx_full $end
$var wire 8 q# tx_fifo_rd_data [7:0] $end
$var wire 1 r# tx_fifo_empty $end
$var wire 1 s# tx_done_tick $end
$var wire 1 > tx $end
$var wire 1 t# rx_parity_err $end
$var wire 8 u# rx_fifo_wr_data [7:0] $end
$var wire 1 A# rx_empty $end
$var wire 1 v# rx_done_tick $end
$var wire 8 w# rx_data [7:0] $end
$var wire 1 x# baud_clk_tick $end
$var reg 1 y# q_rx_parity_err $end
$scope module uart_baud_clk_blk $end
$var wire 1 $ clk $end
$var wire 1 @ reset $end
$var wire 16 z# d_cnt [15:0] $end
$var wire 1 x# baud_clk_tick $end
$var reg 16 {# q_cnt [15:0] $end
$upscope $end
$scope module uart_rx_blk $end
$var wire 1 x# baud_clk_tick $end
$var wire 1 $ clk $end
$var wire 1 @ reset $end
$var wire 1 # rx $end
$var wire 8 |# rx_data [7:0] $end
$var wire 1 v# rx_done_tick $end
$var wire 1 t# parity_err $end
$var reg 8 }# d_data [7:0] $end
$var reg 3 ~# d_data_bit_idx [2:0] $end
$var reg 1 !$ d_done_tick $end
$var reg 4 "$ d_oversample_tick_cnt [3:0] $end
$var reg 1 #$ d_parity_err $end
$var reg 5 $$ d_state [4:0] $end
$var reg 8 %$ q_data [7:0] $end
$var reg 3 &$ q_data_bit_idx [2:0] $end
$var reg 1 v# q_done_tick $end
$var reg 4 '$ q_oversample_tick_cnt [3:0] $end
$var reg 1 t# q_parity_err $end
$var reg 1 ($ q_rx $end
$var reg 5 )$ q_state [4:0] $end
$upscope $end
$scope module uart_rx_fifo $end
$var wire 3 *$ addr_bits_wide_1 [2:0] $end
$var wire 1 $ clk $end
$var wire 1 +$ d_empty $end
$var wire 1 ,$ d_full $end
$var wire 1 A# empty $end
$var wire 1 -$ full $end
$var wire 8 .$ rd_data [7:0] $end
$var wire 1 `# rd_en $end
$var wire 1 /$ rd_en_prot $end
$var wire 1 @ reset $end
$var wire 8 0$ wr_data [7:0] $end
$var wire 1 v# wr_en $end
$var wire 1 1$ wr_en_prot $end
$var wire 3 2$ d_wr_ptr [2:0] $end
$var wire 3 3$ d_rd_ptr [2:0] $end
$var wire 8 4$ d_data [7:0] $end
$var reg 1 5$ q_empty $end
$var reg 1 6$ q_full $end
$var reg 3 7$ q_rd_ptr [2:0] $end
$var reg 3 8$ q_wr_ptr [2:0] $end
$upscope $end
$scope module uart_tx_blk $end
$var wire 1 x# baud_clk_tick $end
$var wire 1 $ clk $end
$var wire 1 @ reset $end
$var wire 1 > tx $end
$var wire 1 s# tx_done_tick $end
$var wire 1 9$ tx_start $end
$var wire 8 :$ tx_data [7:0] $end
$var reg 4 ;$ d_baud_clk_tick_cnt [3:0] $end
$var reg 8 <$ d_data [7:0] $end
$var reg 3 =$ d_data_bit_idx [2:0] $end
$var reg 1 >$ d_parity_bit $end
$var reg 5 ?$ d_state [4:0] $end
$var reg 1 @$ d_tx $end
$var reg 1 A$ d_tx_done_tick $end
$var reg 4 B$ q_baud_clk_tick_cnt [3:0] $end
$var reg 8 C$ q_data [7:0] $end
$var reg 3 D$ q_data_bit_idx [2:0] $end
$var reg 1 E$ q_parity_bit $end
$var reg 5 F$ q_state [4:0] $end
$var reg 1 G$ q_tx $end
$var reg 1 s# q_tx_done_tick $end
$upscope $end
$scope module uart_tx_fifo $end
$var wire 10 H$ addr_bits_wide_1 [9:0] $end
$var wire 1 $ clk $end
$var wire 1 I$ d_empty $end
$var wire 1 J$ d_full $end
$var wire 1 r# empty $end
$var wire 1 @# full $end
$var wire 8 K$ rd_data [7:0] $end
$var wire 1 s# rd_en $end
$var wire 1 L$ rd_en_prot $end
$var wire 1 @ reset $end
$var wire 8 M$ wr_data [7:0] $end
$var wire 1 _# wr_en $end
$var wire 1 N$ wr_en_prot $end
$var wire 10 O$ d_wr_ptr [9:0] $end
$var wire 10 P$ d_rd_ptr [9:0] $end
$var wire 8 Q$ d_data [7:0] $end
$var reg 1 R$ q_empty $end
$var reg 1 S$ q_full $end
$var reg 10 T$ q_rd_ptr [9:0] $end
$var reg 10 U$ q_wr_ptr [9:0] $end
$upscope $end
$upscope $end
$upscope $end
$scope module ram0 $end
$var wire 17 V$ a_in [16:0] $end
$var wire 1 $ clk_in $end
$var wire 8 W$ d_in [7:0] $end
$var wire 1 * en_in $end
$var wire 1 X$ r_nw_in $end
$var wire 1 Y$ ram_bram_we $end
$var wire 8 Z$ ram_bram_dout [7:0] $end
$var wire 8 [$ d_out [7:0] $end
$scope module ram_bram $end
$var wire 17 \$ addr_a [16:0] $end
$var wire 1 $ clk $end
$var wire 8 ]$ din_a [7:0] $end
$var wire 8 ^$ dout_a [7:0] $end
$var wire 1 Y$ we $end
$var reg 17 _$ q_addr_a [16:0] $end
$var integer 32 `$ i [31:0] $end
$upscope $end
$upscope $end
$upscope $end
$upscope $end
$enddefinitions $end
#0
$dumpvars
b100000000000000000 `$
bx _$
bx ^$
bx ]$
bx \$
bx [$
bx Z$
xY$
xX$
bx W$
bx V$
bx U$
bx T$
xS$
xR$
bx Q$
bx P$
bx O$
xN$
bx M$
0L$
bx K$
xJ$
xI$
b1 H$
1G$
b1 F$
0E$
b0 D$
b0 C$
b0 B$
0A$
1@$
b1 ?$
0>$
b0 =$
b0 <$
b0 ;$
bx :$
x9$
bx 8$
bx 7$
x6$
x5$
bx 4$
bx 3$
bx 2$
01$
b0 0$
0/$
bx .$
x-$
x,$
x+$
b1 *$
b1 )$
1($
b0 '$
b0 &$
b0 %$
b1 $$
0#$
b0 "$
0!$
b0 ~#
b0 }#
b0 |#
b0 {#
b1 z#
0y#
0x#
bx w#
0v#
b0 u#
0t#
0s#
xr#
bx q#
bx p#
0o#
bx n#
bx m#
xl#
xk#
bx j#
bx i#
bx h#
xg#
bx f#
0e#
bx d#
xc#
xb#
b1 a#
0`#
x_#
bx ^#
bx ]#
x\#
bx [#
xZ#
bx Y#
bx X#
bx W#
bx V#
bx U#
bx T#
0S#
0R#
b0 Q#
bx P#
0O#
b0 N#
b0 M#
bx L#
bx K#
bx J#
bx I#
bx H#
bx G#
xF#
xE#
bx D#
0C#
bx B#
xA#
x@#
bx ?#
bx >#
bx =#
bx <#
bx ;#
bz :#
b0 9#
z8#
bx 7#
b0 6#
b0 5#
bx 4#
bx 3#
bx 2#
bx 1#
bx 0#
b0 /#
bx .#
bx -#
bx ,#
b0 +#
b0 *#
b0 )#
b0 (#
b0 '#
b0 &#
b0 %#
bx $#
bx ##
bx "#
bx !#
bx ~"
bx }"
bx |"
bx {"
bx z"
bx y"
bx x"
bx w"
bx v"
bx u"
b0 t"
b0 s"
bx r"
bx q"
bx p"
b0 o"
b0 n"
bx m"
bx l"
bx k"
bx j"
bx i"
bx h"
b0 g"
b0 f"
b0 e"
xd"
0c"
b0 b"
0a"
b0 `"
bx _"
bx ^"
bx ]"
bx \"
bx ["
bx Z"
bx Y"
b0 X"
b0 W"
bx V"
bx U"
bx T"
b0 S"
bx R"
b0 Q"
bx P"
bx O"
b0 N"
bx M"
bx L"
bx K"
bx J"
bx I"
bx H"
bx G"
bx F"
bx E"
bx D"
bx C"
b0 B"
b0 A"
bx @"
b0 ?"
b0 >"
bx ="
b0 <"
b0 ;"
b0 :"
bx 9"
b0 8"
b0 7"
bx 6"
bx 5"
bx 4"
bx 3"
bx 2"
bx 1"
bx 0"
bx /"
bx ."
bx -"
bx ,"
bx +"
b0 *"
b0 )"
bx ("
b0 '"
b0 &"
bx %"
bx $"
b0 #"
bx ""
bx !"
0~
b0 }
b0 |
bx {
bx z
bx y
bx x
xw
xv
bx u
bx t
bx s
bx r
bx q
bx p
bx o
bx n
b0 m
xl
b0 k
bx j
b0 i
xh
b0 g
xf
bx e
0d
bx c
b0 b
bx a
b0 `
0_
bx ^
x]
bx \
x[
xZ
bx Y
bx X
bx W
bx V
b0 U
xT
bx S
0R
b0 Q
0P
bx O
b0 N
bx M
b0 L
xK
0J
0I
b0 H
bx G
bx F
xE
1D
bx C
bz B
1A
1@
x?
1>
bx =
bx <
bx ;
x:
19
bx 8
bx 7
x6
05
x4
bx 3
x2
x1
bx 0
bx /
bx .
0-
bx ,
bx +
x*
0)
bx (
x'
bx &
bz %
0$
z#
1"
0!
$end
#1000
0Y$
02
1*
1[
1X$
b0 0
b0 <#
b0 ,
b0 V$
b0 \$
1b#
0c#
0,$
1+$
1I$
0J$
b0 e
b0 @"
b0 P"
b0 j
b0 R"
b0 2#
b0 n
b0 T"
b0 1#
b0 ["
b0 Z"
b0 V"
b0 o
b0 C"
b0 _"
0d"
b0 s
b0 E"
b0 ]"
b0 t
b0 F"
b0 \"
0h
0l
0f
b0 r
b0 D"
b0 ^"
0'
06
b0 8
b0 &
b0 ;#
b0 7
b0 W$
b0 ]$
b0 h#
b0 i#
b0 2$
b0 3$
09$
b0 O$
b0 P$
0g#
0N$
b0 K#
b0 I#
b0 L#
b0 J#
b1 P#
b0 H#
b0 a
b0 j"
b0 0#
b0 ^
b0 m"
b0 q"
b0 q
b0 Y"
b0 h"
b0 p
b0 U"
b0 i"
b0 {
b0 2"
b0 J"
b0 ""
b0 5"
b0 H"
b0 $"
b0 6"
b0 G"
0w
b0 u
b0 /"
b0 M"
b0 3"
b0 !"
b0 4"
b0 I"
b0 y
b0 0"
b0 L"
b0 z
b0 1"
b0 K"
b0 V
b0 ,"
b0 !#
0K
b0 O
b0 -"
b0 ##
b0 M
b0 ."
b0 $#
b0 X
b0 +"
b0 ~"
b0 \
b0 k"
b0 y"
b10 }"
b0 u"
0:
b0 w"
b0 =
b0 Y
b0 z"
b0 ;
b0 W
b0 {"
0T
b0 S
b0 |"
b0 "#
0]
b0 c
b0 l"
b0 x"
0E
b0 G
b0 ,#
b0 3#
b0 F
b0 -#
b0 4#
0E#
0l#
1F#
1k#
b0 n#
b0 m#
0-$
06$
1A#
15$
b0 8$
b0 7$
01
0@#
0S$
1r#
1R$
b0 U$
b0 T$
b0 3
b0 G#
b0 Y#
b0 U#
0Z#
b0 [#
b0 f#
0\#
0_#
b0 ^#
b0 p#
b0 M$
b0 W#
b0 /
b0 =#
b0 T#
b0 X#
b0 V#
14
b1 ]#
b100000000 p"
b100000 7#
1$
1!
#2000
0$
0!
#3000
b110111 <
b110111 C
b110111 r"
b110111 (
b110111 >#
b110111 +
b110111 [$
0?
b110111 Z$
b110111 ^$
b0 _$
b100000 7#
b100000000 p"
1$
1!
#4000
0$
0!
#5000
b100000000 p"
b100000 7#
1$
1!
#6000
0$
0!
#7000
b100000 7#
b100000000 p"
1$
1!
#8000
0$
0!
#9000
b100000000 p"
b100000 7#
1$
1!
#10000
0$
0!
#11000
b100000 7#
b100000000 p"
1$
1!
#12000
0$
0!
#13000
b100000000 p"
b100000 7#
1$
1!
#14000
0$
0!
#15000
b100000 7#
b100000000 p"
1$
1!
#16000
0$
0!
#17000
b100000000 p"
b100000 7#
1$
1!
#18000
0$
0!
#19000
b100000 7#
b100000000 p"
1$
1!
#20000
0$
0!
#21000
b100000000 p"
b100000 7#
1$
1!
#22000
0$
0!
#23000
b100000 7#
b100000000 p"
1$
1!
#24000
0$
0!
#25000
b100000000 p"
b100000 7#
1$
1!
#26000
0$
0!
#27000
b100000 7#
b100000000 p"
1$
1!
#28000
0$
0!
#29000
b100000000 p"
b100000 7#
1$
1!
#30000
0$
0!
#31000
b100000 7#
b100000000 p"
1$
1!
#32000
0$
0!
#33000
b100000000 p"
b100000 7#
1$
1!
#34000
0$
0!
#35000
b100000 7#
b100000000 p"
1$
1!
#36000
0$
0!
#37000
b100000000 p"
b100000 7#
1$
1!
#38000
0$
0!
#39000
b100000 7#
b100000000 p"
1$
1!
#40000
0$
0!
#41000
b100000000 p"
b100000 7#
1$
1!
#42000
0$
0!
#43000
b100000 7#
b100000000 p"
1$
1!
#44000
0$
0!
#45000
b100000000 p"
b100000 7#
1$
1!
#46000
0$
0!
#47000
b100000 7#
b100000000 p"
1$
1!
#48000
0$
0!
#49000
b100000000 p"
b100000 7#
1$
1!
#50000
0"
0$
0!
#51000
0A
b100000 7#
b100000000 p"
1$
1!
#52000
0$
0!
#53000
b11 H
b11 &"
b11 ?"
b11 e"
b11 +#
b11 /#
b11 9#
0Z
b0 x
b0 ("
b0 ="
b0 O"
0v
1_
0D
0@
b100000000 p"
b100000 7#
1$
1!
#54000
0$
0!
#55000
b10 z#
b0 v"
b11 }"
b1 {#
z($
1$
1!
#56000
0$
0!
#57000
b1 0
b1 <#
b1 ,
b1 V$
b1 \$
b1 8
b11 z#
b1 u"
b1 =
b1 Y
b1 z"
b10 {#
1$
1!
#58000
0$
0!
#59000
b10 0
b10 <#
b10 ,
b10 V$
b10 \$
b1 <
b1 C
b1 r"
b10 8
b1 (
b1 >#
b1 +
b1 [$
b100 z#
b10 u"
b10 =
b10 Y
b10 z"
b110111 w"
b1 Z$
b1 ^$
b1 _$
b11 {#
1$
1!
#60000
0$
0!
#61000
b10 <
b10 C
b10 r"
b11 0
b11 <#
b11 ,
b11 V$
b11 \$
b10 (
b10 >#
b10 +
b10 [$
b11 8
b101 z#
b10 Z$
b10 ^$
b10 _$
b11 u"
b11 =
b11 Y
b11 z"
b100110111 w"
b100 {#
1$
1!
#62000
0$
0!
#63000
b0 <
b0 C
b0 r"
b0 (
b0 >#
b0 +
b0 [$
b110 z#
b100 u"
b100000000100110111 w"
b0 Z$
b0 ^$
b11 _$
b101 {#
1$
1!
#64000
0$
0!
#65000
b0 H
b0 &"
b0 ?"
b0 e"
b0 +#
b0 /#
b0 9#
0[
0_
b100000000100110111 b
b100000000100110111 g"
b100000000100110111 n"
b111 z#
b10 }"
1]
b0 u"
b100000000100110111 c
b100000000100110111 l"
b100000000100110111 x"
b110 {#
1$
1!
#66000
0$
0!
#67000
b100000000000000000 g
b100000000000000000 A"
b100000000000000000 b"
1d"
b1 s
b1 E"
b1 ]"
b110 t
b110 F"
b110 \"
1f
b100000000000000000 r
b100000000000000000 D"
b100000000000000000 ^"
1[
b11 H
b11 &"
b11 ?"
b11 e"
b11 +#
b11 /#
b11 9#
b10 e
b10 @"
b10 P"
b100 n
b100 T"
b100 1#
b110111 V"
1_
b0 b
b0 g"
b0 n"
b1000 z#
0]
b100000000100110111 q
b100000000100110111 Y"
b100000000100110111 h"
b100 ^
b100 m"
b100 q"
b100 a
b100 j"
b100 0#
b111 {#
1$
1!
#68000
0$
0!
